{
    "Crawler": {
        "Name": "ccao-data-warehouse-tax-crawler",
        "Role": "ccao-glue-service-role",
        "Targets": {
            "S3Targets": [
                {
                    "Path": "s3://ccao-data-warehouse-us-east-1/tax",
                    "Exclusions": []
                }
            ],
            "JdbcTargets": [],
            "DynamoDBTargets": [],
            "CatalogTargets": []
        },
        "DatabaseName": "tax",
        "Classifiers": [],
        "SchemaChangePolicy": {
            "UpdateBehavior": "UPDATE_IN_DATABASE",
            "DeleteBehavior": "DELETE_FROM_DATABASE"
        },
        "State": "READY",
        "CrawlElapsedTime": 0,
        "CreationTime": "2022-01-07T19:53:56-06:00",
        "LastUpdated": "2022-01-17T19:51:29-06:00",
        "LastCrawl": {
            "Status": "SUCCEEDED",
            "LogGroup": "/aws-glue/crawlers",
            "LogStream": "ccao-data-warehouse-tax-crawler",
            "MessagePrefix": "b9798718-376b-4c29-8059-42f672f9613f",
            "StartTime": "2022-01-17T00:00:55-06:00"
        },
        "Version": 5,
        "Configuration": "{\"Version\":1.0,\"Grouping\":{\"TableLevelConfiguration\":3}}"
    }
}
