{
    "Crawler": {
        "Name": "ccao-data-ptaxsim-crawler",
        "Role": "ccao-glue-service-role",
        "Targets": {
            "S3Targets": [
                {
                    "Path": "s3://ccao-data-ptaxsim-us-east-1",
                    "Exclusions": []
                }
            ],
            "JdbcTargets": [],
            "DynamoDBTargets": [],
            "CatalogTargets": []
        },
        "DatabaseName": "tax",
        "Classifiers": [],
        "SchemaChangePolicy": {
            "UpdateBehavior": "UPDATE_IN_DATABASE",
            "DeleteBehavior": "DELETE_FROM_DATABASE"
        },
        "State": "READY",
        "CrawlElapsedTime": 0,
        "CreationTime": "2022-06-16T09:14:44-05:00",
        "LastUpdated": "2022-06-16T09:14:44-05:00",
        "LastCrawl": {
            "Status": "SUCCEEDED",
            "LogGroup": "/aws-glue/crawlers",
            "LogStream": "ccao-data-ptaxsim-crawler",
            "MessagePrefix": "af6ee008-68e0-4fe7-8f1a-7d0cb6c92288",
            "StartTime": "2023-04-28T11:25:32-05:00"
        },
        "Version": 1,
        "Configuration": "{\"Version\":1.0,\"Grouping\":{\"TableLevelConfiguration\":2}}"
    }
}
